{
    "KPlugin": {
        "Authors": [
            {
                "Email": "damu@iki.fi",
                "Name": "Petri Damstén",
                "Name[ar]": "Petri Damstén",
                "Name[az]": "Petri Damstén",
                "Name[ca@valencia]": "Petri Damstén",
                "Name[ca]": "Petri Damstén",
                "Name[cs]": "Petri Damstén",
                "Name[en_GB]": "Petri Damstén",
                "Name[es]": "Petri Damstén",
                "Name[fi]": "Petri Damstén",
                "Name[fr]": "Petri Damstén",
                "Name[hu]": "Petri Damstén",
                "Name[ia]": "Petri Damstén",
                "Name[it]": "Petri Damstén",
                "Name[lt]": "Petri Damstén",
                "Name[nl]": "Petri Damstén",
                "Name[nn]": "Petri Damstén",
                "Name[pl]": "Petri Damstén",
                "Name[pt_BR]": "Petri Damstén",
                "Name[ru]": "Petri Damstén",
                "Name[sk]": "Petri Damstén",
                "Name[sl]": "Petri Damstén",
                "Name[sv]": "Petri Damstén",
                "Name[uk]": "Petri Damstén",
                "Name[vi]": "Petri Damstén",
                "Name[x-test]": "xxPetri Damsténxx",
                "Name[zh_CN]": "Petri Damstén"
            }
        ],
        "Category": "Windows and Tasks",
        "Description": "Shows the desktop by moving windows aside",
        "Description[ar]": "يظهر سطح المكتب بتحريك كل النوافذ على جنب",
        "Description[az]": "Bütün pəncərələri kənara çəkməklə İş Masasını göstərir",
        "Description[ca@valencia]": "Mostra l'escriptori movent les finestres a part",
        "Description[ca]": "Mostra l'escriptori movent les finestres a part",
        "Description[en_GB]": "Shows the desktop by moving windows aside",
        "Description[es]": "Muestra el escritorio moviendo las ventanas a un lado",
        "Description[fi]": "Näyttää työpöydän siirtämällä ikkunoita sivuun",
        "Description[fr]": "Affiche le bureau en déplaçant toutes les fenêtres sur le côté",
        "Description[hu]": "Az asztal megjelenítése az ablakok oldalra mozgatásával",
        "Description[ia]": "Monstra le scriptorio per mover fenestra a latere",
        "Description[it]": "Mostra il desktop spostando le finestre di lato",
        "Description[lt]": "Rodo darbalaukį perkeldamas langus į šalį",
        "Description[nl]": "Toont het bureaublad door vensters opzij te schuiven",
        "Description[nn]": "Viser skrivebordet ved å flytta vindauge til sides",
        "Description[pa]": "ਸਾਰੀਆਂ ਵਿੰਡੋਆਂ ਨੂੰ ਲੁਕਾ ਕੇ ਡੈਸਕਟਾਪ ਵੇਖਾਓ",
        "Description[pl]": "Pokaż pulpit rozsuwając okna na bok",
        "Description[pt_BR]": "Mostra a área de trabalho ao mover a janela para o lado",
        "Description[ru]": "Показывает рабочий стол перемещением окон к краям экрана",
        "Description[sl]": "Prikaži namizje s pomikom vseh oken na stran",
        "Description[sv]": "Visar skrivbordet genom flytta undan fönster",
        "Description[uk]": "Показує стільницю, прибравши вікна",
        "Description[vi]": "Hiện bàn làm việc bằng cách di chuyển các cửa sổ sang bên",
        "Description[x-test]": "xxShows the desktop by moving windows asidexx",
        "Description[zh_CN]": "移开窗口以显示桌面",
        "EnabledByDefault": true,
        "FormFactors": [
            "desktop"
        ],
        "Icon": "user-desktop",
        "Id": "org.kde.plasma.showdesktop",
        "License": "GPL-2.0+",
        "Name": "Show Desktop",
        "Name[ar]": "أظهر سطح المكتب",
        "Name[az]": "İş Masasını Göstərmək",
        "Name[ca@valencia]": "Mostra l'escriptori",
        "Name[ca]": "Mostra l'escriptori",
        "Name[cs]": "Zobrazit plochu",
        "Name[da]": "Vis skrivebord",
        "Name[de]": "Arbeitsfläche anzeigen",
        "Name[en_GB]": "Show Desktop",
        "Name[es]": "Mostrar el escritorio",
        "Name[et]": "Töölaua näitamine",
        "Name[eu]": "Erakutsi mahaigaina",
        "Name[fi]": "Näytä työpöytä",
        "Name[fr]": "Afficher un bureau",
        "Name[gl]": "Mostrar o escritorio",
        "Name[hu]": "Asztal megjelenítése",
        "Name[ia]": "Monstra Scriptorio",
        "Name[id]": "Tampilkan Desktop",
        "Name[it]": "Mostra il desktop",
        "Name[ko]": "바탕 화면 표시",
        "Name[lt]": "Rodyti darbalaukį",
        "Name[ml]": "പണിയിടം കാണിക്കുക",
        "Name[nl]": "Bureaublad tonen",
        "Name[nn]": "Vis skrivebord",
        "Name[pa]": "ਡੈਸਕਟਾਪ ਨੂੰ ਵੇਖਾਓ",
        "Name[pl]": "Pokaż pulpit",
        "Name[pt]": "Mostrar o Ecrã",
        "Name[pt_BR]": "Mostrar a área de trabalho",
        "Name[ro]": "Arată biroul",
        "Name[ru]": "Показать рабочий стол",
        "Name[sk]": "Zobraziť plochu",
        "Name[sl]": "Prikaži namizje",
        "Name[sv]": "Visa skrivbord",
        "Name[ta]": "பணிமேடையை காட்டு",
        "Name[tg]": "Намоиш додани мизи корӣ",
        "Name[tr]": "Masaüstünü Göster",
        "Name[uk]": "Показати стільницю",
        "Name[vi]": "Hiện bàn làm việc",
        "Name[x-test]": "xxShow Desktopxx",
        "Name[zh_CN]": "显示桌面",
        "Name[zh_TW]": "顯示桌面",
        "ServiceTypes": [
            "Plasma/Applet"
        ],
        "Version": "1.0",
        "Website": "https://kde.org/plasma-desktop"
    },
    "X-Plasma-API": "declarativeappletscript",
    "X-Plasma-MainScript": "ui/main.qml",
    "X-Plasma-Provides": [
        "org.kde.plasma.windowmanagement"
    ]
}
