{
    "KPlugin": {
        "Description": "Date and Time",
        "Description[ar]": "التّاريخ والوقت",
        "Description[az]": "Tarix və Vaxt",
        "Description[ca@valencia]": "Data i hora",
        "Description[ca]": "Data i hora",
        "Description[en_GB]": "Date and Time",
        "Description[es]": "Fecha y hora",
        "Description[fi]": "Aika ja päiväys",
        "Description[fr]": "Date et heure",
        "Description[hu]": "Dátum és idő",
        "Description[ia]": "Data e Tempore",
        "Description[it]": "Data e ora",
        "Description[lt]": "Data ir laikas",
        "Description[nl]": "Datum en tijd",
        "Description[nn]": "Dato og klokkeslett",
        "Description[pa]": "ਤਾਰੀਖ ਅਤੇ ਸਮਾਂ",
        "Description[pl]": "Data i czas",
        "Description[pt_BR]": "Data e hora",
        "Description[ru]": "Дата и время",
        "Description[sl]": "Datum in čas",
        "Description[sv]": "Datum och tid",
        "Description[uk]": "Дата і час",
        "Description[vi]": "Ngày giờ",
        "Description[x-test]": "xxDate and Timexx",
        "Description[zh_CN]": "日期和时间",
        "Icon": "preferences-system-time",
        "Name": "Date & Time",
        "Name[af]": "Datum & Tyd",
        "Name[ar]": "التّاريخ والوقت",
        "Name[ast]": "Data y hora",
        "Name[az]": "Tariv və Vaxt",
        "Name[be@latin]": "Data j čas",
        "Name[be]": "Дата і час",
        "Name[bg]": "Дата и час",
        "Name[bn]": "তারিখ এবং সময়",
        "Name[bn_IN]": "তারিখ ও সময়",
        "Name[br]": "Deiziad hag eur",
        "Name[bs]": "Datum i vrijeme",
        "Name[ca@valencia]": "Data i hora",
        "Name[ca]": "Data i hora",
        "Name[cs]": "Datum a čas",
        "Name[csb]": "Datum ë czas",
        "Name[cy]": "Dyddiad ac Amser",
        "Name[da]": "Dato og klokkeslæt",
        "Name[de]": "Datum & Zeit",
        "Name[el]": "Ημερομηνία & Ώρα",
        "Name[en_GB]": "Date & Time",
        "Name[eo]": "Dato kaj Tempo",
        "Name[es]": "Fecha y hora",
        "Name[et]": "Kuupäev ja kellaaeg",
        "Name[eu]": "Data eta ordua",
        "Name[fa]": "تاریخ و زمان",
        "Name[fi]": "Aika ja päiväys",
        "Name[fr]": "Date et heure",
        "Name[fy]": "Datum en Tiid",
        "Name[ga]": "Dáta agus Am",
        "Name[gl]": "Data e hora",
        "Name[gu]": "તારીખ & સમય",
        "Name[he]": "תאריך ושעה",
        "Name[hi]": "तारीख़ व समय",
        "Name[hne]": "तारीक अउ समय",
        "Name[hr]": "Datum i vrijeme",
        "Name[hsb]": "Datum & čas",
        "Name[hu]": "Dátum és idő",
        "Name[ia]": "Data & Tempore",
        "Name[id]": "Tanggal & Waktu",
        "Name[is]": "Dagsetning og tími",
        "Name[it]": "Data e ora",
        "Name[ja]": "日付と時刻",
        "Name[ka]": "თარიღი და დრო",
        "Name[kk]": "Күн мен уақыт",
        "Name[km]": "កាល​បរិច្ឆេទ និង​ពេលវេលា",
        "Name[kn]": "ದಿನಾಂಕ ಮತ್ತು ಸಮಯ",
        "Name[ko]": "날짜와 시간",
        "Name[ku]": "Roj & Dem",
        "Name[lt]": "Data ir laikas",
        "Name[lv]": "Datums un laiks",
        "Name[mai]": "दिनाँक आ समय",
        "Name[mk]": "Датум и време",
        "Name[ml]": "തീയതിയും സമയവും",
        "Name[mr]": "दिनांक व वेळ",
        "Name[ms]": "Tarikh & Masa",
        "Name[nb]": "Dato og klokkeslett",
        "Name[nds]": "Datum & Tiet",
        "Name[ne]": "मिति र समय",
        "Name[nl]": "Datum en Tijd",
        "Name[nn]": "Dato og klokkeslett",
        "Name[oc]": "Data e ora",
        "Name[or]": "ତାରିଖ ଏବଂ ସମୟ",
        "Name[pa]": "ਤਾਰੀਖ ਅਤੇ ਸਮਾਂ",
        "Name[pl]": "Data i czas",
        "Name[pt]": "Data e Hora",
        "Name[pt_BR]": "Data e hora",
        "Name[ro]": "Data și ora",
        "Name[ru]": "Дата и время",
        "Name[se]": "Dáhton ja áigi",
        "Name[si]": "දිනය සහ වේලාව",
        "Name[sk]": "Dátum a čas",
        "Name[sl]": "Datum in čas",
        "Name[sr@ijekavian]": "Датум и вријеме",
        "Name[sr@ijekavianlatin]": "Datum i vrijeme",
        "Name[sr@latin]": "Datum i vreme",
        "Name[sr]": "Датум и време",
        "Name[sv]": "Datum och tid",
        "Name[ta]": "தேதி & நேரம்",
        "Name[te]": "తేది & సమయం",
        "Name[tg]": "Сана ва вақт",
        "Name[th]": "วันและเวลา",
        "Name[tr]": "Tarih ve Saat",
        "Name[ug]": "چېسلا & ۋاقىت",
        "Name[uk]": "Дата і час",
        "Name[uz@cyrillic]": "Сана ва вақт",
        "Name[uz]": "Sana va vaqt",
        "Name[vi]": "Ngày giờ",
        "Name[wa]": "Date et eure",
        "Name[x-test]": "xxDate & Timexx",
        "Name[xh]": "Umhla & Ixesha",
        "Name[zh_CN]": "日期和时间",
        "Name[zh_TW]": "日期和時間"
    },
    "X-DocPath": "kcontrol/clock/index.html",
    "X-KDE-Keywords": "clock,date,time,time zone,timezone,ntp,synchronize,calendar,local time,region time,watch,location,place,country,countries,hours,minutes,seconds,weeks,months,years,utc",
    "X-KDE-Keywords[ar]": "ساعة,تاريخ,وقت,منطقة زمنية,ntp,مزامنة,تقويم,وقت محلي,وقت إقليم",
    "X-KDE-Keywords[az]": "clock,date,time,time zone,timezone,ntp,synchronize,calendar,local time,region time,watch,location,place,country,countries,hours,minutes,seconds,weeks,months,years,utc,saat,tarix,vaxt,saat qurşağı,vaxt zonası,eyniləşdirmə,təqvim,yerli vaxt,bölgə vaxtı,qol saatı,yerli məkan,yer,ölkə,ölkələr,saatlar, dəqiqələr,saniyələr,həftələr,aylar,illər,ümumdünya vaxtı",
    "X-KDE-Keywords[ca]": "rellotge,data,hora,zona horària,ntp,sincronització,calendari,hora local,hora de la regió,rellotge,ubicació,lloc,país,països,hores,minuts,segons,setmanes,mesos,anys,utc",
    "X-KDE-Keywords[cs]": "hodiny,datum,čas,časová zóna,ntp,synchronizace,kalendář,místní čas,regionální čas,hodinky,místo,umístění,zem,země,hodiny,minuty,sekundy,týdny,měsíce,roky,utc",
    "X-KDE-Keywords[en_GB]": "clock,date,time,time zone,timezone,ntp,synchronise,calendar,local time,region time,watch,location,place,country,countries,hours,minutes,seconds,weeks,months,years,utc",
    "X-KDE-Keywords[es]": "reloj,fecha,hora,zona horaria,huso horario,ntp,sincronizar,calendario,hora local,hora regional,reloj,ubicación,lugar,país,países,horas,minutos,segundos,semanas,meses,años,utc",
    "X-KDE-Keywords[eu]": "erlojua,data,ordua,ordu gunea,ordu-gunea,ntp,sinkronizatzea,egutegia,ordu lokala,tokiko ordua,eskualdeko ordua,eskumuturreko erlojua,kokapena,lekua, herrialdea,herrialdeak,orduak,minutuak,segundoak,asteak,hilabeteak,urteak,utc",
    "X-KDE-Keywords[fi]": "kello,päivä,päiväys,päivämäärä,aika,aikavyöhyke,ntp,synkronointi,tahdistus,kalenteri,paikallinen aika,alueellinen aika,sijainti,paikka,maa,maat,tunnit,minuutit,sekunnit,viikot,kuukaudet,vuodet,utc",
    "X-KDE-Keywords[fr]": "horloge, date, heure, fuseau horaire, ntp, synchronisation, calendrier, heure locale, heure régionale, montre, emplacement, pays, états, heurs, minutes, secondes, semaines, mois, années, UTC",
    "X-KDE-Keywords[hu]": "óra,dátum,idő,időzóna,időzóna,ntp,szinkronizálás,naptár,helyi idő,régiós idő,óra,hely,hely,ország,országok,órák,percek,másodpercek,hetek,hónapok,évek,utc",
    "X-KDE-Keywords[ia]": "horologio,data,tempore,fuso horari,ntp,synchronisa,calendario,tempore local,tempore de region,horologio,location,loco,pais,paises,horas,minutas,secundas, septimanas,menses,annos,utc",
    "X-KDE-Keywords[it]": "orologio,data,ora,fuso orario,ntp,sincronizza,calendario,ora locale,ora regionale,orologio,posizione,luogo,nazione,nazioni,ore,minuti,secondi,settimane,mesi,anni,utc",
    "X-KDE-Keywords[ko]": "clock,date,time,time zone,timezone,ntp,synchronize,calendar,local time,region time,watch,location,place,country,countries,hours,minutes,seconds,weeks,months,years,utc,시간,날짜,시간대,시계,동기화,달력,지역 시간,시간대,위치,국가,시,분,초,주,월,달,연,년",
    "X-KDE-Keywords[nl]": "klok,datum,tijd,tijdzone,ntp,synchroniseren,agenda,lokale tijd,tijd in regio,bewaken,locatie,plaats,land,landen,uren,minuten,seconden,weken,maanden,jaren,utc",
    "X-KDE-Keywords[nn]": "klokke,dato,tid,tidssone,ntp,synkronisering,kalender,lokal tid,regiontid,klokke,ur,posisjon,plassering,stad,land,timar,time,minutt,sekund,veker,månadar,år,utc",
    "X-KDE-Keywords[pa]": "ਘੜੀ,ਤਾਰੀਖ,ਮਿਤੀ,ਸਮਾਂ,ਸਮਾਂ-ਖੇਤਰ,ਐਨਟੀਪੀ,ਸਮਕਾਲੀ,ਸੈਕਰੋਨਾਈਜ਼,ਕੈਲੰਡਰ,ਲੋਕਲ ਸਮਾਂ,ਖੇਤਰੀ ਸਮਾਂ,ਕਲਾਕ,ਟਿਕਾਣਾ,ਥਾਂ,ਟਿਕਾਣਾ,ਸਾਲ,ਮਹੀਨੇ,ਹਫ਼ਤੇ,ਮਾਹ,ਮਿੰਟ,ਸਕਿੰਟ,ਘੰਟੇ,ਦੇਸ਼,ਬਿੰਦ,ਪਲ,ਯੂਟੀਸੀ,ਸਥਾਨਕ,ਹਫ਼ਤਾ",
    "X-KDE-Keywords[pl]": "zegar,data,czas,strefa czasowa,ntp,synchronizuj,kalendarz,czas lokalny,czas regionalny,zegar,położenie,miejsce,kraj,kraje,godziny,minuty,sekundy,tygodnie,miesiące,lata,utc",
    "X-KDE-Keywords[pt]": "relógio,data,hora,fuso-horário,ntp,sincronizar,calendário,hora local,hora regional,localização,local,país,países,horas,minutos,segundos,semanas,meses,anos,utc",
    "X-KDE-Keywords[pt_BR]": "relógio,data,hora,fuso horário,ntp,sincronizar,calendário,hora local,hora regional,relógio,localização,país,países,horas,minutos,segundos,semanas,meses,anos,utc",
    "X-KDE-Keywords[ru]": "clock,date,time,time zone,timezone,ntp,synchronize,calendar,local time,region time,watch,location,place,country,countries,hours,minutes,seconds,weeks,months,years,utc,время,дата,часы,часовой пояс,синхронизировать,календарь,местное время,локальное время,региональное время,страна,страны,минуты,секунды,недели,месяцы,года",
    "X-KDE-Keywords[sk]": "hodiny,dátum,čas,časové pásmo,ntp,synchronizácia,kalendár,miestny čas,regionálny čas,hodinky,umiestnenie,miesto,krajina,krajiny,hodiny,minúty,sekundy, týždne,mesiace,roky,utc",
    "X-KDE-Keywords[sl]": "ura,datum,čas,časovni pas,časovna cona,ntp,uskladitev,koledar,krajevni čas,območni čas,ura,lokacija,kraj,država,dežele,ure,minute,sekunde,tedni,meseci,leta,utc",
    "X-KDE-Keywords[sv]": "klocka,datum,tid,tidszon,ntp,synkronisera,kalender,lokal tid,områdestid,ur,plats,land,länder,timmar,minuter,sekunder,veckor,månader,år,utc",
    "X-KDE-Keywords[ta]": "clock,date,time,time zone,timezone,ntp,synchronize,calendar,local time,region time, watch,location,place,country,countries,hours,minutes,seconds, weeks,months,years,utc,நேரம், கடிகாரம், நாள்காட்டி, கால மண்டலம், நேர மண்டலம், வட்டார நேரம், உள்ளூர் நேரம், காலம், இருப்பிடம், நாடு, மணி, நிமிடம், நொடி, வினாடி, மாதம், வருடம்",
    "X-KDE-Keywords[tr]": "saat,tarih,zaman,zaman dilimi,zamandilimi,ntp,eşzamanlama,takvim,yerel saat,bölge saati saat,bölge,yer,ülke,ülkeler,saatler,dakikalar,saniyeler,haftalar,aylar,yıllar",
    "X-KDE-Keywords[uk]": "clock,date,time,time zone,timezone,ntp,synchronize,calendar,local time,region time,watch,location,place,country,countries,hours,minutes,seconds,weeks,months,years,utc,годинник,дата,час,часовий пояс,синхронізація,календар,місцевий час,місце,місто,країна,країни,години,хвилини,секунди,тижні,місяці,роки,гринвіч",
    "X-KDE-Keywords[vi]": "clock,date,time,time zone,timezone,ntp,synchronize,calendar,local time,region time,watch,location,place,country,countries,hours,minutes,seconds,weeks,months,years,utc,đồng hồ,ngày,thời gian,múi giờ,đồng bộ hoá,lịch,giờ địa phương,giờ theo vùng,đồng hồ đeo tay,địa điểm,vị trí,nước,giờ,phút,giây,tuần,tháng,năm",
    "X-KDE-Keywords[x-test]": "xxclockxx,xxdatexx,xxtimexx,xxtime zonexx,xxtimezonexx,xxntpxx,xxsynchronizexx,xxcalendarxx,xxlocal timexx,xxregion timexx,xxwatchxx,xxlocationxx,xxplacexx,xxcountryxx,xxcountriesxx,xxhoursxx,xxminutesxx,xxsecondsxx,xxweeksxx,xxmonthsxx,xxyearsxx,xxutcxx",
    "X-KDE-Keywords[zh_CN]": "clock,date,time,time zone,timezone,ntp,synchronize,calendar,local time,region time,watch,location,place,country,countries,hours,minutes,seconds,weeks,months,years,utc,时钟,日期,时间,时区,同步,日历,本地时间,地区时间,表,位置,地点,国家,小时,时,分钟,分,秒,周,月份,月,年",
    "X-KDE-System-Settings-Parent-Category": "regionalsettings",
    "X-KDE-Weight": 70
}
